%YAML 1.1
%TAG !u! tag:unity3d.com,2011:
--- !u!21 &2100000
Material:
  serializedVersion: 6
  m_ObjectHideFlags: 0
  m_PrefabParentObject: {fileID: 0}
  m_PrefabInternal: {fileID: 0}
  m_Name: F00_000_00_FaceEyelash_00_FACE
  m_Shader: {fileID: 4800000, guid: 1a97144e4ad27a04aafd70f7b915cedb, type: 3}
  m_ShaderKeywords: _ALPHABLEND_ON _NORMALMAP
  m_LightmapFlags: 4
  m_EnableInstancingVariants: 0
  m_DoubleSidedGI: 0
  m_CustomRenderQueue: 3000
  stringTagMap:
    RenderType: Opaque
  disabledShaderPasses: []
  m_SavedProperties:
    serializedVersion: 3
    m_TexEnvs:
    - _BumpMap:
        m_Texture: {fileID: 2800000, guid: 31fe27b7059cf00429abbfec3a1b4e79, type: 3}
        m_Scale: {x: 1, y: 1}
        m_Offset: {x: 0, y: 0}
    - _EmissionMap:
        m_Texture: {fileID: 2800000, guid: 261e1b9115ecccc40b557ef3e394e321, type: 3}
        m_Scale: {x: 1, y: 1}
        m_Offset: {x: 0, y: 0}
    - _MainTex:
        m_Texture: {fileID: 2800000, guid: b360ab611cc965148a2b66195a5c2f32, type: 3}
        m_Scale: {x: 1, y: 1}
        m_Offset: {x: 0, y: 0}
    - _OutlineWidthTexture:
        m_Texture: {fileID: 0}
        m_Scale: {x: 1, y: 1}
        m_Offset: {x: 0, y: 0}
    - _ReceiveShadowTexture:
        m_Texture: {fileID: 0}
        m_Scale: {x: 1, y: 1}
        m_Offset: {x: 0, y: 0}
    - _RimTexture:
        m_Texture: {fileID: 0}
        m_Scale: {x: 1, y: 1}
        m_Offset: {x: 0, y: 0}
    - _ShadeTexture:
        m_Texture: {fileID: 2800000, guid: b360ab611cc965148a2b66195a5c2f32, type: 3}
        m_Scale: {x: 1, y: 1}
        m_Offset: {x: 0, y: 0}
    - _ShadingGradeTexture:
        m_Texture: {fileID: 0}
        m_Scale: {x: 1, y: 1}
        m_Offset: {x: 0, y: 0}
    - _SphereAdd:
        m_Texture: {fileID: 2800000, guid: 261e1b9115ecccc40b557ef3e394e321, type: 3}
        m_Scale: {x: 1, y: 1}
        m_Offset: {x: 0, y: 0}
    - _UvAnimMaskTexture:
        m_Texture: {fileID: 0}
        m_Scale: {x: 1, y: 1}
        m_Offset: {x: 0, y: 0}
    m_Floats:
    - _BlendMode: 2
    - _BumpScale: 1
    - _CullMode: 0
    - _Cutoff: 0.5
    - _DebugMode: 0
    - _DstBlend: 10
    - _IndirectLightIntensity: 0.1
    - _LightColorAttenuation: 0
    - _MToonVersion: 32
    - _OutlineColorMode: 1
    - _OutlineCullMode: 1
    - _OutlineLightingMix: 1
    - _OutlineScaledMaxDistance: 1
    - _OutlineWidth: 0.165
    - _OutlineWidthMode: 0
    - _ReceiveShadowRate: 1
    - _RimFresnelPower: 1
    - _RimLift: 0
    - _RimLightingMix: 0
    - _ShadeShift: -0.3
    - _ShadeToony: 0
    - _ShadingGradeRate: 1
    - _SrcBlend: 5
    - _UvAnimRotation: 0
    - _UvAnimScrollX: 0
    - _UvAnimScrollY: 0
    - _ZWrite: 0
    m_Colors:
    - _Color: {r: 0.18026012, g: 0.23410405, b: 0.18241388, a: 1}
    - _EmissionColor: {r: 0, g: 0, b: 0, a: 0}
    - _OutlineColor: {r: 0.27450982, g: 0.09019608, b: 0.1254902, a: 1}
    - _RimColor: {r: 0, g: 0, b: 0, a: 1}
    - _ShadeColor: {r: 0.1381214, g: 0.17052023, b: 0.13641618, a: 1}
