%YAML 1.1
%TAG !u! tag:unity3d.com,2011:
--- !u!114 &11400000
MonoBehaviour:
  m_ObjectHideFlags: 0
  m_PrefabParentObject: {fileID: 0}
  m_PrefabInternal: {fileID: 0}
  m_GameObject: {fileID: 0}
  m_Enabled: 1
  m_EditorHideFlags: 0
  m_Script: {fileID: 11500000, guid: 329dca3bf78fcdd42b2df941673db76f, type: 3}
  m_Name: BlendShape
  m_EditorClassIdentifier: 
  Clips:
  - {fileID: 11400000, guid: 03bc617d137ad4c418993267dd56a5c7, type: 2}
  - {fileID: 11400000, guid: d35fd92b745f8d944bca802ebcd3989a, type: 2}
  - {fileID: 11400000, guid: 6cad512c0f075474ab28e33c21516de2, type: 2}
  - {fileID: 11400000, guid: 1f71579665318d2419191ce99e68bde8, type: 2}
  - {fileID: 11400000, guid: f0f93ef12d7992b45a12a7453ed178b1, type: 2}
  - {fileID: 11400000, guid: 82c560b3ffc72d0498a2ead053c19fea, type: 2}
  - {fileID: 11400000, guid: bc2c993f5c9a3ba4585bdce1636801a6, type: 2}
  - {fileID: 11400000, guid: bb86e2eb92086db45a4a207b14de164a, type: 2}
  - {fileID: 11400000, guid: 5739ce8da97f0714a991259e8d3506a9, type: 2}
  - {fileID: 11400000, guid: 53d7e94b0cf11774aa9f551108a33814, type: 2}
  - {fileID: 11400000, guid: f007fe89971cbc948b270d346bf3ef34, type: 2}
  - {fileID: 11400000, guid: df8029143a1f9734cb64aa803c4bd70b, type: 2}
  - {fileID: 11400000, guid: cd4232f2ff148884b854478a8702205c, type: 2}
  - {fileID: 11400000, guid: bbb8b97970696b44b8266a0ca9fc3852, type: 2}
  - {fileID: 11400000, guid: 887e9a1b527a9c845a4c551091b45214, type: 2}
  - {fileID: 11400000, guid: e11a336079ec5a247bf376ca84a61b05, type: 2}
  - {fileID: 11400000, guid: 7fe28e148ad497c4ca5ebaaa80817d0b, type: 2}
  - {fileID: 11400000, guid: f69936fd21e104e488a0d23fbebacae0, type: 2}
