%YAML 1.1
%TAG !u! tag:unity3d.com,2011:
--- !u!114 &11400000
MonoBehaviour:
  m_ObjectHideFlags: 0
  m_PrefabParentObject: {fileID: 0}
  m_PrefabInternal: {fileID: 0}
  m_GameObject: {fileID: 0}
  m_Enabled: 1
  m_EditorHideFlags: 0
  m_Script: {fileID: 11500000, guid: 329dca3bf78fcdd42b2df941673db76f, type: 3}
  m_Name: BlendShape
  m_EditorClassIdentifier: 
  Clips:
  - {fileID: 11400000, guid: 7e5c43ea088b85245a6c4caf5a7252cc, type: 2}
  - {fileID: 11400000, guid: 906c0a78de5282c479c984ab96e4abd2, type: 2}
  - {fileID: 11400000, guid: ddef7431c5ffa9245842debc9e64465f, type: 2}
  - {fileID: 11400000, guid: 91149e5d4c4f1c74591a635f0524385e, type: 2}
  - {fileID: 11400000, guid: 05094946a3eb35b479a7cebf01bf2511, type: 2}
  - {fileID: 11400000, guid: ecf0e4183892cc14680f2f2c42fa190a, type: 2}
  - {fileID: 11400000, guid: 2c94e0416fbbaf347b056b2627d8bb6b, type: 2}
  - {fileID: 11400000, guid: 53d3890b078d42042af9336f1452c9bc, type: 2}
  - {fileID: 11400000, guid: 794bf91d8080d674e865180d0499e019, type: 2}
  - {fileID: 11400000, guid: be2322c71ec0da648a45f41c4ca253f0, type: 2}
  - {fileID: 11400000, guid: b006ee676d20dfd42baa06d15aa89266, type: 2}
  - {fileID: 11400000, guid: 2becc35b1db0b9645a30361ad7ed6bae, type: 2}
  - {fileID: 11400000, guid: 6f5a160d8796554489de1821c897c208, type: 2}
  - {fileID: 11400000, guid: 745e7cf57c964c84eab9f6da15dc1e8a, type: 2}
  - {fileID: 11400000, guid: ffe14d774a158b14c906abd3349cbd93, type: 2}
  - {fileID: 11400000, guid: 8918171e112a158459a8cce8f64a71bb, type: 2}
  - {fileID: 11400000, guid: fa2b733f6d6a93c4e8bfd47a86d01715, type: 2}
  - {fileID: 11400000, guid: 5ab81c02b4bb8ce48a1081dc7903cc8f, type: 2}
  - {fileID: 11400000, guid: 9728a4a0b4db6484e9dd04ea5a41b7bd, type: 2}
