%YAML 1.1
%TAG !u! tag:unity3d.com,2011:
--- !u!21 &2100000
Material:
  serializedVersion: 6
  m_ObjectHideFlags: 0
  m_PrefabParentObject: {fileID: 0}
  m_PrefabInternal: {fileID: 0}
  m_Name: F00_001_01_Shoes_01_CLOTH
  m_Shader: {fileID: 46, guid: 0000000000000000f000000000000000, type: 0}
  m_ShaderKeywords: MTOON_OUTLINE_COLOR_FIXED MTOON_OUTLINE_WIDTH_WORLD _NORMALMAP
  m_LightmapFlags: 4
  m_EnableInstancingVariants: 0
  m_DoubleSidedGI: 0
  m_CustomRenderQueue: -1
  stringTagMap: {}
  disabledShaderPasses: []
  m_SavedProperties:
    serializedVersion: 3
    m_TexEnvs:
    - _BumpMap:
        m_Texture: {fileID: 2800000, guid: 31fe27b7059cf00429abbfec3a1b4e79, type: 3}
        m_Scale: {x: 1, y: 1}
        m_Offset: {x: 0, y: 0}
    - _DetailAlbedoMap:
        m_Texture: {fileID: 0}
        m_Scale: {x: 1, y: 1}
        m_Offset: {x: 0, y: 0}
    - _DetailMask:
        m_Texture: {fileID: 0}
        m_Scale: {x: 1, y: 1}
        m_Offset: {x: 0, y: 0}
    - _DetailNormalMap:
        m_Texture: {fileID: 0}
        m_Scale: {x: 1, y: 1}
        m_Offset: {x: 0, y: 0}
    - _EmissionMap:
        m_Texture: {fileID: 2800000, guid: 261e1b9115ecccc40b557ef3e394e321, type: 3}
        m_Scale: {x: 1, y: 1}
        m_Offset: {x: 0, y: 0}
    - _MainTex:
        m_Texture: {fileID: 2800000, guid: eb3444f73f57e7c4e89949e7422517a0, type: 3}
        m_Scale: {x: 1, y: 1}
        m_Offset: {x: 0, y: 0}
    - _MetallicGlossMap:
        m_Texture: {fileID: 0}
        m_Scale: {x: 1, y: 1}
        m_Offset: {x: 0, y: 0}
    - _OcclusionMap:
        m_Texture: {fileID: 0}
        m_Scale: {x: 1, y: 1}
        m_Offset: {x: 0, y: 0}
    - _OutlineWidthTexture:
        m_Texture: {fileID: 0}
        m_Scale: {x: 1, y: 1}
        m_Offset: {x: 0, y: 0}
    - _ParallaxMap:
        m_Texture: {fileID: 0}
        m_Scale: {x: 1, y: 1}
        m_Offset: {x: 0, y: 0}
    - _ReceiveShadowTexture:
        m_Texture: {fileID: 0}
        m_Scale: {x: 1, y: 1}
        m_Offset: {x: 0, y: 0}
    - _RimTexture:
        m_Texture: {fileID: 0}
        m_Scale: {x: 1, y: 1}
        m_Offset: {x: 0, y: 0}
    - _ShadeTexture:
        m_Texture: {fileID: 2800000, guid: eb3444f73f57e7c4e89949e7422517a0, type: 3}
        m_Scale: {x: 1, y: 1}
        m_Offset: {x: 0, y: 0}
    - _ShadingGradeTexture:
        m_Texture: {fileID: 0}
        m_Scale: {x: 1, y: 1}
        m_Offset: {x: 0, y: 0}
    - _SphereAdd:
        m_Texture: {fileID: 2800000, guid: 078cb635b717fa841956bd5de0e4fea0, type: 3}
        m_Scale: {x: 1, y: 1}
        m_Offset: {x: 0, y: 0}
    - _UvAnimMaskTexture:
        m_Texture: {fileID: 0}
        m_Scale: {x: 1, y: 1}
        m_Offset: {x: 0, y: 0}
    m_Floats:
    - _BlendMode: 1
    - _BumpScale: 1
    - _CullMode: 2
    - _Cutoff: 0.5
    - _DebugMode: 0
    - _DetailNormalMapScale: 1
    - _DstBlend: 0
    - _GlossMapScale: 1
    - _Glossiness: 0.359
    - _GlossyReflections: 1
    - _IndirectLightIntensity: 0.1
    - _LightColorAttenuation: 0
    - _MToonVersion: 32
    - _Metallic: 0
    - _Mode: 0
    - _OcclusionStrength: 1
    - _OutlineColorMode: 0
    - _OutlineCullMode: 1
    - _OutlineLightingMix: 1
    - _OutlineScaledMaxDistance: 1
    - _OutlineWidth: 0.075
    - _OutlineWidthMode: 1
    - _Parallax: 0.02
    - _ReceiveShadowRate: 1
    - _RimFresnelPower: 1
    - _RimLift: 0
    - _RimLightingMix: 0
    - _ShadeShift: -0.3
    - _ShadeToony: 0
    - _ShadingGradeRate: 1
    - _SmoothnessTextureChannel: 0
    - _SpecularHighlights: 1
    - _SrcBlend: 1
    - _UVSec: 0
    - _UvAnimRotation: 0
    - _UvAnimScrollX: 0
    - _UvAnimScrollY: 0
    - _ZWrite: 1
    m_Colors:
    - _Color: {r: 1, g: 1, b: 1, a: 1}
    - _EmissionColor: {r: 0, g: 0, b: 0, a: 0}
    - _OutlineColor: {r: 0.27450982, g: 0.09019608, b: 0.1254902, a: 1}
    - _RimColor: {r: 0, g: 0, b: 0, a: 1}
    - _ShadeColor: {r: 0.97, g: 0.81, b: 0.86, a: 1}
